module vostra/go

go 1.18

require (
	github.com/go-resty/resty/v2 v2.7.0
	github.com/go-sql-driver/mysql v1.6.0
	github.com/google/uuid v1.3.0
	github.com/jmoiron/sqlx v1.3.4
	github.com/labstack/echo/v4 v4.7.2
)

require (
	github.com/kr/pretty v0.3.0 // indirect
	github.com/kr/text v0.2.0 // indirect
	github.com/labstack/gommon v0.3.1 // indirect
	github.com/mattn/go-colorable v0.1.11 // indirect
	github.com/mattn/go-isatty v0.0.14 // indirect
	github.com/rogpeppe/go-internal v1.6.1 // indirect
	github.com/valyala/bytebufferpool v1.0.0 // indirect
	github.com/valyala/fasttemplate v1.2.1 // indirect
	golang.org/x/crypto v0.0.0-20210817164053-32db794688a5 // indirect
	golang.org/x/net v0.0.0-20211029224645-99673261e6eb // indirect
	golang.org/x/sys v0.0.0-20211103235746-7861aae1554b // indirect
	golang.org/x/text v0.3.7 // indirect
)
