@startuml

participant scheduler as sch
participant "other\nscheduler" as oth

activate sch
sch <-> oth: coordination via DB

group IF run as LEADER
    note over sch, app
        Scheduler won't execute the app if run as LEADER
    end note
end

group IF run as FOLLOWER and in operational state
    sch -> app ** : execute
    note left
        INSTANCE_ID
        SCHEDULER_PORT
        APP_PORT
    end note
    activate app

    app -> app: Server started
    app -> sch: Header {Instance-Id}\nPOST /subscribe\nBody []{Processor, Endpoint, Topic}

    group When Message Ready
        sch -> app: Header {Instance-Id}\nPOST <<path>>\nBody=message
        app -> sch: Header {Instance-Id}\nPOST /message\nBody={IdempotencyKey?, PartitionKey?, Message, Topic}\nPublish message to topic
        note over app, sch
            If not empty, the IdempotencyKey is used to prevent duplicate
            messages created with the same IdempotencyKey.
            If not empty, the PartitionKey is used to ensure that all messages
            using the same PartitionKey will be directed to the same partition.
        end note
        app -> sch
        ...
        sch -> app
        ...
    end
end

@enduml